%YAML 1.1
%TAG !u! tag:unity3d.com,2011:
--- !u!21 &2100000
Material:
  serializedVersion: 6
  m_ObjectHideFlags: 0
  m_PrefabParentObject: {fileID: 0}
  m_PrefabInternal: {fileID: 0}
  m_Name: jerryball
  m_Shader: {fileID: 46, guid: 0000000000000000f000000000000000, type: 0}
  m_ShaderKeywords: _ALPHABLEND_ON _EMISSION _SMOOTHNESS_TEXTURE_ALBEDO_CHANNEL_A
  m_LightmapFlags: 1
  m_CustomRenderQueue: 3000
  stringTagMap:
    RenderType: Transparent
  m_SavedProperties:
    serializedVersion: 2
    m_TexEnvs:
    - first:
        name: _BumpMap
      second:
        m_Texture: {fileID: 0}
        m_Scale: {x: 1, y: 1}
        m_Offset: {x: 0, y: 0}
    - first:
        name: _DecalTex
      second:
        m_Texture: {fileID: 0}
        m_Scale: {x: 1, y: 1}
        m_Offset: {x: 0, y: 0}
    - first:
        name: _DetailAlbedoMap
      second:
        m_Texture: {fileID: 0}
        m_Scale: {x: 1, y: 1}
        m_Offset: {x: 0, y: 0}
    - first:
        name: _DetailMask
      second:
        m_Texture: {fileID: 0}
        m_Scale: {x: 1, y: 1}
        m_Offset: {x: 0, y: 0}
    - first:
        name: _DetailNormalMap
      second:
        m_Texture: {fileID: 0}
        m_Scale: {x: 1, y: 1}
        m_Offset: {x: 0, y: 0}
    - first:
        name: _EmissionMap
      second:
        m_Texture: {fileID: 0}
        m_Scale: {x: 1, y: 1}
        m_Offset: {x: 0, y: 0}
    - first:
        name: _Illum
      second:
        m_Texture: {fileID: 0}
        m_Scale: {x: 1, y: 1}
        m_Offset: {x: 0, y: 0}
    - first:
        name: _MainTex
      second:
        m_Texture: {fileID: 2800000, guid: 32b96fa9b42b4da4188dea07664f7b92, type: 3}
        m_Scale: {x: 1, y: 1}
        m_Offset: {x: 0, y: 0}
    - first:
        name: _MetallicGlossMap
      second:
        m_Texture: {fileID: 0}
        m_Scale: {x: 1, y: 1}
        m_Offset: {x: 0, y: 0}
    - first:
        name: _OcclusionMap
      second:
        m_Texture: {fileID: 0}
        m_Scale: {x: 1, y: 1}
        m_Offset: {x: 0, y: 0}
    - first:
        name: _ParallaxMap
      second:
        m_Texture: {fileID: 0}
        m_Scale: {x: 1, y: 1}
        m_Offset: {x: 0, y: 0}
    - first:
        name: _Ramp
      second:
        m_Texture: {fileID: 0}
        m_Scale: {x: 1, y: 1}
        m_Offset: {x: 0, y: 0}
    - first:
        name: _ToonShade
      second:
        m_Texture: {fileID: 0}
        m_Scale: {x: 1, y: 1}
        m_Offset: {x: 0, y: 0}
    m_Floats:
    - first:
        name: _BumpAmt
      second: 0
    - first:
        name: _BumpScale
      second: 1
    - first:
        name: _Cutoff
      second: 0.122
    - first:
        name: _DetailNormalMapScale
      second: 1
    - first:
        name: _DiffuseThreshold
      second: 0.1
    - first:
        name: _DstBlend
      second: 10
    - first:
        name: _Emission
      second: 1
    - first:
        name: _GlossMapScale
      second: 0.293
    - first:
        name: _Glossiness
      second: 0.5
    - first:
        name: _GlossyReflections
      second: 1
    - first:
        name: _Metallic
      second: 0
    - first:
        name: _Mode
      second: 2
    - first:
        name: _OcclusionStrength
      second: 1
    - first:
        name: _OutlineThickness
      second: 0.1
    - first:
        name: _Parallax
      second: 0.02
    - first:
        name: _Shininess
      second: 1
    - first:
        name: _SmoothnessTextureChannel
      second: 1
    - first:
        name: _SpecularHighlights
      second: 1
    - first:
        name: _SrcBlend
      second: 5
    - first:
        name: _UVSec
      second: 0
    - first:
        name: _ZWrite
      second: 0
    m_Colors:
    - first:
        name: _Color
      second: {r: 1, g: 1, b: 1, a: 0.697}
    - first:
        name: _Emission
      second: {r: 0, g: 0, b: 0, a: 0}
    - first:
        name: _EmissionColor
      second: {r: 0, g: 0, b: 0, a: 1}
    - first:
        name: _SpecColor
      second: {r: 1, g: 1, b: 1, a: 1}
    - first:
        name: _UnlitColor
      second: {r: 0.5, g: 0.5, b: 0.5, a: 1}
